<svg xmlns="http://www.w3.org/2000/svg" width="8.565" height="16" viewBox="0 0 8.565 16">
    <defs>
        <style>
            .cls-1{fill:#f0f0f0}
        </style>
    </defs>
    <g id="right-arrow" transform="translate(-33.4 -6.5)">
        <path id="Path_50" d="M34.366 22.334a.566.566 0 0 1-.8 0 .566.566 0 0 1 0-.8L40.6 14.5l-7.034-7.034a.566.566 0 1 1 .8-.8L41.8 14.1a.566.566 0 0 1 0 .8z" class="cls-1" data-name="Path 50"/>
    </g>
</svg>
