<svg xmlns="http://www.w3.org/2000/svg" width="21.25" height="15.996" viewBox="0 0 21.25 15.996">
    <defs>
        <style>
            .cls-1{fill:#414141}
        </style>
    </defs>
    <g id="list" transform="translate(0 -7.434)">
        <path id="Path_5" d="M29.19 48.014H14.98a1.06 1.06 0 0 1 0-2.121h14.21a1.06 1.06 0 0 1 0 2.121z" class="cls-1" data-name="Path 5" transform="translate(-9 -24.866)"/>
        <path id="Path_6" d="M29.19 29.183H14.98a1.06 1.06 0 0 1 0-2.121h14.21a1.06 1.06 0 0 1 0 2.121z" class="cls-1" data-name="Path 6" transform="translate(-9 -12.691)"/>
        <path id="Path_7" d="M29.19 10.352H14.98a1.06 1.06 0 0 1 0-2.121h14.21a1.06 1.06 0 0 1 0 2.121z" class="cls-1" data-name="Path 7" transform="translate(-9 -.515)"/>
        <ellipse id="Ellipse_2" cx="1.424" cy="1.424" class="cls-1" data-name="Ellipse 2" rx="1.424" ry="1.424" transform="translate(0 7.434)"/>
        <ellipse id="Ellipse_3" cx="1.424" cy="1.424" class="cls-1" data-name="Ellipse 3" rx="1.424" ry="1.424" transform="translate(0 14.008)"/>
        <ellipse id="Ellipse_4" cx="1.424" cy="1.424" class="cls-1" data-name="Ellipse 4" rx="1.424" ry="1.424" transform="translate(0 20.581)"/>
    </g>
</svg>
