<svg xmlns="http://www.w3.org/2000/svg" width="5" height="20" viewBox="0 0 5 20">
    <defs>
        <style>
            .cls-1{fill:#414141}
        </style>
    </defs>
    <g id="show-more-button-with-three-dots" transform="translate(-153)">
        <g id="more-vert" transform="translate(153)">
            <path id="Path_1" d="M155.5 5a2.5 2.5 0 1 0-2.5-2.5 2.507 2.507 0 0 0 2.5 2.5zm0 2.5A2.5 2.5 0 1 0 158 10a2.507 2.507 0 0 0-2.5-2.5zm0 7.5a2.5 2.5 0 1 0 2.5 2.5 2.507 2.507 0 0 0-2.5-2.5z" class="cls-1" data-name="Path 1" transform="translate(-153)"/>
        </g>
    </g>
</svg>
