<svg xmlns="http://www.w3.org/2000/svg" width="21.864" height="20" viewBox="0 0 21.864 20">
    <defs>
        <style>
            .cls-1{fill:#e73047}
        </style>
    </defs>
    <g id="editphoto" transform="translate(0 -19.936)">
        <g id="Group_156" data-name="Group 156" transform="translate(10.312 36.172)">
            <g id="Group_155" data-name="Group 155">
                <path id="Path_64" d="M242.2 404.052a.427.427 0 1 0 .125.3.43.43 0 0 0-.125-.3z" class="cls-1" data-name="Path 64" transform="translate(-241.474 -403.927)"/>
            </g>
        </g>
        <g id="Group_158" data-name="Group 158" transform="translate(0 19.936)">
            <g id="Group_157" data-name="Group 157">
                <path id="Path_65" d="M15.971 19.936H1.281A1.277 1.277 0 0 0 0 21.205v14.552a1.277 1.277 0 0 0 1.281 1.269h7.345a.423.423 0 1 0 0-.846H1.281a.426.426 0 0 1-.427-.423V21.205a.426.426 0 0 1 .427-.423h14.69a.426.426 0 0 1 .427.423v3.934a.427.427 0 0 0 .854 0v-3.934a1.277 1.277 0 0 0-1.281-1.269z" class="cls-1" data-name="Path 65" transform="translate(0 -19.936)"/>
            </g>
        </g>
        <g id="Group_160" data-name="Group 160" transform="translate(4.854 23.786)">
            <g id="Group_159" data-name="Group 159">
                <path id="Path_66" d="M115.031 110.934a1.366 1.366 0 1 0 1.369 1.366 1.368 1.368 0 0 0-1.369-1.366zm0 1.879a.512.512 0 1 1 .512-.512.513.513 0 0 1-.512.512z" class="cls-1" data-name="Path 66" transform="translate(-113.665 -110.934)"/>
            </g>
        </g>
        <g id="Group_162" data-name="Group 162" transform="translate(2.05 21.986)">
            <g id="Group_161" data-name="Group 161">
                <path id="Path_67" d="M67.772 73.015a1.177 1.177 0 0 0-.556-.718l-1.734-.997a1.2 1.2 0 0 0-1.631.433l-2.7 4.634v-8.009a.425.425 0 0 0-.427-.423h-12.3a.425.425 0 0 0-.427.423v10.157a.425.425 0 0 0 .427.423h9.966a.423.423 0 1 0 0-.846h-8.933l3.1-3.072 2.3 2.282a.43.43 0 0 0 .6 0 .421.421 0 0 0 0-.6l-2.6-2.582a.43.43 0 0 0-.6 0l-3.4 3.372v-8.711H60.3v6.034l-3.39-3.36a.43.43 0 0 0-.6 0L54.041 73.7a.421.421 0 0 0 0 .6.43.43 0 0 0 .6 0l1.96-1.943 3.689 3.656v1.826l-1.833 3.146a.42.42 0 0 0-.055.168l-.444 4.267a.422.422 0 0 0 .211.41.43.43 0 0 0 .464-.024l3.506-2.515a.424.424 0 0 0 .119-.131l5.386-9.246a1.166 1.166 0 0 0 .128-.899zm-8.859 11.55l.279-2.677 1.921 1.1zm2.827-2.2l-2.322-1.325 4.06-6.97L65.8 75.4zm5.173-8.88l-.685 1.176-2.323-1.329.685-1.176a.342.342 0 0 1 .464-.123l1.734.992a.335.335 0 0 1 .124.46z" class="cls-1" data-name="Path 67" transform="translate(-47.999 -67.935)"/>
            </g>
        </g>
    </g>
</svg>
