<svg xmlns="http://www.w3.org/2000/svg" width="17.091" height="17.039" viewBox="0 0 17.091 17.039">
    <defs>
        <style>
            .cls-1{fill:#414141;stroke:#414141}
        </style>
    </defs>
    <g id="home" transform="translate(.546 -.844)">
        <path id="Path_20" d="M15.9 21.522H4.928a.243.243 0 0 1-.242-.242v-9.017a.242.242 0 0 1 .485 0v8.774h10.486v-8.774a.242.242 0 0 1 .485 0v9.017a.242.242 0 0 1-.242.242z" class="cls-1" data-name="Path 20" transform="translate(-2.414 -4.139)"/>
        <path id="Path_21" d="M15.757 9.194a.241.241 0 0 1-.166-.066L8 1.959.408 9.128a.242.242 0 0 1-.333-.352l7.758-7.327a.242.242 0 0 1 .333 0l7.758 7.326a.243.243 0 0 1 .01.343.246.246 0 0 1-.177.076z" class="cls-1" data-name="Path 21"/>
    </g>
</svg>
