{
  "containerDefinitions": [{
 "name": "production",
 "image": "dcgruup/gruup:34",
 "cpu": 100,
 "memory": 256,
 "portMappings": [
   {
     "containerPort": 80,
     "hostPort": 80
   },
   {
     "hostPort": 443,
     "containerPort": 443,
     "protocol": "tcp"
   }
 ],
 "essential": true,
 "environment" : [
   {
     "name" : "environment",
     "value" : "production"
   }
 ],
 "mountPoints": [
   {
     "sourceVolume": "webdata",
     "containerPath": "/app/public/thumbImg"
   },
   {
     "sourceVolume": "weblogs",
     "containerPath": "/var/log/nginx"
   }
 ]
}],
  "volumes": [
    {
       "name": "webdata",
       "host": {
          "sourcePath": "/ecs/webdata"
       }
    },
    {
       "name": "weblogs",
       "host": {
          "sourcePath": "/ecs/weblogs"
       }
    }]
}
